filename,width,height,class,xmin,ymin,xmax,ymax
0008947194_0.jpg,1598,256,date,21,40,273,131
0008947194_0.jpg,1598,256,country,413,51,591,133
0008947194_0.jpg,1598,256,location,594,49,939,140
0008947197_0.jpg,1572,276,date,8,60,268,138
0008947197_0.jpg,1572,276,country,396,61,575,134
0008947197_0.jpg,1572,276,location,575,59,925,151
0008947226_0.jpg,1571,292,date,19,46,259,129
0008947226_0.jpg,1571,292,country,394,47,567,121
0008947226_0.jpg,1571,292,location,563,42,885,130
0008947230_0.jpg,1613,303,date,1,57,267,137
0008947230_0.jpg,1613,303,country,389,57,555,130
0008947230_0.jpg,1613,303,location,563,49,897,134
0008947231_0.jpg,1615,254,date,1,44,245,119
0008947231_0.jpg,1615,254,country,377,47,548,127
0008947231_0.jpg,1615,254,location,548,52,775,125
0008947244_0.jpg,1609,278,date,15,54,270,137
0008947244_0.jpg,1609,278,country,406,57,588,139
0008947244_0.jpg,1609,278,location,590,57,899,134
0008947276_0.jpg,1586,308,date,1,56,256,122
0008947276_0.jpg,1586,308,country,370,55,549,127
0008947276_0.jpg,1586,308,location,549,55,834,119
0008947288_0.jpg,1624,259,date,13,41,264,126
0008947288_0.jpg,1624,259,country,403,42,590,114
0008947288_0.jpg,1624,259,location,600,34,919,113
0008947307_0.jpg,1601,276,date,9,58,247,134
0008947307_0.jpg,1601,276,country,399,56,587,141
0008947307_0.jpg,1601,276,location,588,53,902,126
0008947314_0.jpg,1639,268,date,30,54,262,138
0008947314_0.jpg,1639,268,country,416,57,598,141
0008947314_0.jpg,1639,268,location,599,55,744,127
0008947326_0.jpg,1628,290,date,15,57,277,146
0008947326_0.jpg,1628,290,country,406,56,592,127
0008947326_0.jpg,1628,290,location,592,56,919,133
0008947346_0.jpg,1614,264,date,27,51,275,135
0008947346_0.jpg,1614,264,country,419,51,592,133
0008947346_0.jpg,1614,264,location,593,50,776,124
0008947356_0.jpg,1584,240,date,7,49,246,131
0008947356_0.jpg,1584,240,country,394,48,560,119
0008947356_0.jpg,1584,240,location,559,33,863,94
0008947358_0.jpg,1628,269,date,41,56,276,136
0008947358_0.jpg,1628,269,country,425,56,597,131
0008947358_0.jpg,1628,269,location,601,45,980,134
0008947372_0.jpg,1643,259,date,34,54,267,137
0008947372_0.jpg,1643,259,country,425,57,612,135
0008947372_0.jpg,1643,259,location,609,54,837,127
0008947373_0.jpg,1611,271,date,8,70,268,150
0008947373_0.jpg,1611,271,country,394,65,577,136
0008947373_0.jpg,1611,271,location,582,55,909,127
0008947396_0.jpg,1619,254,date,26,60,273,142
0008947396_0.jpg,1619,254,country,412,59,572,127
0008947396_0.jpg,1619,254,location,573,57,923,138
0008947410_0.jpg,1576,221,date,8,13,252,98
0008947410_0.jpg,1576,221,country,396,14,567,88
0008947410_0.jpg,1576,221,location,571,7,809,69
0008947416_0.jpg,1597,215,date,3,5,266,89
0008947416_0.jpg,1597,215,country,389,8,566,92
0008947416_0.jpg,1597,215,location,569,5,908,92
0008947417_0.jpg,1606,250,date,23,39,243,115
0008947417_0.jpg,1606,250,country,413,41,585,116
0008947417_0.jpg,1606,250,location,587,41,779,117
0008947421_0.jpg,1562,283,date,6,61,236,137
0008947421_0.jpg,1562,283,country,383,62,554,138
0008947421_0.jpg,1562,283,location,558,51,886,138
0008947436_0.jpg,1610,275,date,10,45,273,133
0008947436_0.jpg,1610,275,country,400,51,578,122
0008947436_0.jpg,1610,275,location,580,50,876,129
0008948155_0.jpg,1583,292,date,28,51,294,126
0008948155_0.jpg,1583,292,country,415,57,572,118
0008948155_0.jpg,1583,292,location,587,56,912,136
0008948158_0.jpg,1596,262,date,1,64,384,136
0008948158_0.jpg,1596,262,country,392,62,595,134
0008948158_0.jpg,1596,262,location,585,57,936,142
0008948247_3.jpg,1579,286,date,1,56,228,126
0008948247_3.jpg,1579,286,country,362,59,525,126
0008948247_3.jpg,1579,286,location,529,59,868,134
0008948249_0.jpg,1572,293,date,6,93,253,164
0008948249_0.jpg,1572,293,country,379,89,554,153
0008948249_0.jpg,1572,293,location,555,80,880,144
0008948252_0.jpg,1620,270,date,23,58,269,137
0008948252_0.jpg,1620,270,country,409,60,582,133
0008948252_0.jpg,1620,270,location,581,58,813,136
0008948253_0.jpg,1574,262,date,1,56,234,125
0008948253_0.jpg,1574,262,country,360,56,542,128
0008948253_0.jpg,1574,262,location,544,51,865,128
0008948279_0.jpg,1630,295,date,30,61,291,142
0008948279_0.jpg,1630,295,country,416,61,603,129
0008948279_0.jpg,1630,295,location,603,62,931,132
0008948296_0.jpg,1584,233,date,13,33,279,112
0008948296_0.jpg,1584,233,country,399,31,581,103
0008948296_0.jpg,1584,233,location,584,28,822,103
0008948392_2.jpg,1630,282,date,22,57,253,142
0008948392_2.jpg,1630,282,country,416,62,597,133
0008948392_2.jpg,1630,282,location,595,60,885,131
0008948395_0.jpg,1622,264,date,23,47,267,130
0008948395_0.jpg,1622,264,country,415,52,583,129
0008948395_0.jpg,1622,264,location,584,46,922,135
0008948397_2.jpg,1592,287,date,18,49,261,129
0008948397_2.jpg,1592,287,country,392,58,560,140
0008948397_2.jpg,1592,287,location,561,57,885,141
0008948440_0.jpg,1602,271,date,17,53,264,135
0008948440_0.jpg,1602,271,country,398,52,571,130
0008948440_0.jpg,1602,271,location,571,53,905,133
0008948475_0.jpg,1624,261,date,11,54,270,138
0008948475_0.jpg,1624,261,country,396,57,588,132
0008948475_0.jpg,1624,261,location,594,45,897,128
0008948480_0.jpg,1619,255,date,18,50,243,121
0008948480_0.jpg,1619,255,country,404,51,574,120
0008948480_0.jpg,1619,255,location,576,44,923,126
0008948482_0.jpg,1587,256,date,4,51,260,139
0008948482_0.jpg,1587,256,country,398,57,581,119
0008948482_0.jpg,1587,256,location,584,52,793,125
0008948500_0.jpg,1623,275,date,1,62,251,134
0008948500_0.jpg,1623,275,country,391,59,562,135
0008948500_0.jpg,1623,275,location,562,50,995,150
0008962045_0.jpg,1617,269,date,5,52,236,133
0008962045_0.jpg,1617,269,country,393,55,576,137
0008962045_0.jpg,1617,269,location,579,42,858,141
0008962051_0.jpg,1597,277,date,10,59,241,138
0008962051_0.jpg,1597,277,country,399,63,588,152
0008962051_0.jpg,1597,277,location,592,53,797,116
0008962062_0.jpg,1681,289,date,20,64,261,150
0008962062_0.jpg,1681,289,country,425,64,622,136
0008962062_0.jpg,1681,289,location,628,51,979,133
0008962065_0.jpg,1631,271,date,29,56,276,131
0008962065_0.jpg,1631,271,country,419,57,604,130
0008962065_0.jpg,1631,271,location,606,57,903,132
0008962080_0.jpg,1612,260,date,12,56,259,134
0008962080_0.jpg,1612,260,country,401,56,591,131
0008962080_0.jpg,1612,260,location,583,56,835,128
0008962099_0.jpg,1619,288,date,35,58,274,138
0008962099_0.jpg,1619,288,country,417,55,583,130
0008962099_0.jpg,1619,288,location,586,53,861,144
0008962103_0.jpg,1607,269,date,12,36,257,125
0008962103_0.jpg,1607,269,country,394,41,562,122
0008962103_0.jpg,1607,269,location,567,41,913,138
0008962104_0.jpg,1588,287,date,16,55,223,140
0008962104_0.jpg,1588,287,country,400,57,569,131
0008962104_0.jpg,1588,287,location,572,54,912,128
0008962106_0.jpg,1561,274,date,17,38,272,122
0008962106_0.jpg,1561,274,country,407,48,583,138
0008962106_0.jpg,1561,274,location,587,50,945,139
0008962108_0.jpg,1576,310,date,9,44,258,130
0008962108_0.jpg,1576,310,country,396,50,571,144
0008962108_0.jpg,1576,310,location,578,51,905,145
0008962121_0.jpg,1606,271,date,11,57,271,142
0008962121_0.jpg,1606,271,country,406,55,595,128
0008962121_0.jpg,1606,271,location,597,55,919,132
0008962124_0.jpg,1622,273,date,21,59,249,136
0008962124_0.jpg,1622,273,country,412,61,585,136
0008962124_0.jpg,1622,273,location,592,57,895,138
0008962139_0.jpg,834,112,date,1,34,81,64
0008962139_0.jpg,834,112,country,136,32,220,66
0008962139_0.jpg,834,112,location,216,31,368,65
0008962147_0.jpg,1615,277,date,4,61,279,146
0008962147_0.jpg,1615,277,country,400,61,582,135
0008962147_0.jpg,1615,277,location,581,58,908,137
0008962153_0.jpg,1609,236,date,5,21,258,98
0008962153_0.jpg,1609,236,country,400,23,579,93
0008962153_0.jpg,1609,236,location,582,18,866,99
0008962154_0.jpg,1633,284,date,38,62,304,138
0008962154_0.jpg,1633,284,country,427,62,614,131
0008962154_0.jpg,1633,284,location,612,58,915,137
0008962155_0.jpg,1593,288,date,22,62,243,140
0008962155_0.jpg,1593,288,country,399,59,571,131
0008962155_0.jpg,1593,288,location,577,48,937,133
0008962310_0.jpg,1593,265,date,7,58,273,130
0008962310_0.jpg,1593,265,country,402,58,579,127
0008962310_0.jpg,1593,265,location,584,58,730,121
0008962339_0.jpg,1568,267,date,1,66,246,139
0008962339_0.jpg,1568,267,country,367,59,538,124
0008962339_0.jpg,1568,267,location,543,43,849,121
0008962371_0.jpg,1625,277,date,13,69,284,153
0008962371_0.jpg,1625,277,country,402,68,578,152
0008962371_0.jpg,1625,277,location,579,58,890,139
0008962422_0.jpg,1629,251,date,39,42,268,119
0008962422_0.jpg,1629,251,country,425,43,600,118
0008962422_0.jpg,1629,251,location,600,37,921,118
0008962461_0.jpg,1604,281,date,1,49,251,128
0008962461_0.jpg,1604,281,country,378,51,571,126
0008962461_0.jpg,1604,281,location,576,45,902,126
0008962462_0.jpg,1596,238,date,1,48,258,128
0008962462_0.jpg,1596,238,country,375,39,562,118
0008962462_0.jpg,1596,238,location,566,34,780,110
0008962463_0.jpg,1601,283,date,8,56,275,137
0008962463_0.jpg,1601,283,country,403,56,578,123
0008962463_0.jpg,1601,283,location,579,44,870,129
0008962820_0.jpg,1628,256,date,1,55,252,128
0008962820_0.jpg,1628,256,country,385,55,560,130
0008962820_0.jpg,1628,256,location,556,48,900,126
0008963031_0.jpg,1600,243,date,17,49,272,123
0008963031_0.jpg,1600,243,country,402,48,560,122
0008963031_0.jpg,1600,243,location,580,48,841,122
0008963068_0.jpg,1627,260,date,46,53,303,130
0008963068_0.jpg,1627,260,country,432,51,608,125
0008963068_0.jpg,1627,260,location,611,40,937,124
0008963076_0.jpg,1598,308,date,15,55,269,143
0008963076_0.jpg,1598,308,country,392,59,558,127
0008963076_0.jpg,1598,308,location,567,45,861,115
0008963078_0.jpg,1618,284,date,14,60,268,148
0008963078_0.jpg,1618,284,country,403,65,587,136
0008963078_0.jpg,1618,284,location,589,49,916,140
0008963081_0.jpg,1581,229,date,1,35,260,107
0008963081_0.jpg,1581,229,country,386,32,575,105
0008963081_0.jpg,1581,229,location,577,31,794,89
0008963096_0.jpg,1629,278,date,36,55,280,134
0008963096_0.jpg,1629,278,country,425,56,609,131
0008963096_0.jpg,1629,278,location,608,47,915,113
0008963108_0.jpg,1637,245,date,39,42,296,132
0008963108_0.jpg,1637,245,country,427,39,581,114
0008963108_0.jpg,1637,245,location,605,33,945,124
0008963119_0.jpg,1605,276,date,4,55,264,140
0008963119_0.jpg,1605,276,country,398,59,582,141
0008963119_0.jpg,1605,276,location,581,51,896,143
0008963121_0.jpg,1582,253,date,16,56,281,140
0008963121_0.jpg,1582,253,country,405,55,583,124
0008963121_0.jpg,1582,253,location,587,52,880,125
0008963122_0.jpg,1627,284,date,26,52,250,137
0008963122_0.jpg,1627,284,country,415,55,597,131
0008963122_0.jpg,1627,284,location,600,53,999,140
0008963124_0.jpg,1645,270,date,12,60,280,147
0008963124_0.jpg,1645,270,country,405,60,587,145
0008963124_0.jpg,1645,270,location,587,44,926,130
0008963143_0.jpg,1633,271,date,13,62,257,143
0008963143_0.jpg,1633,271,country,409,63,566,134
0008963143_0.jpg,1633,271,location,589,57,921,139
0008963154_0.jpg,1635,281,date,44,58,296,145
0008963154_0.jpg,1635,281,country,432,60,614,132
0008963154_0.jpg,1635,281,location,618,54,949,128
0008963159_0.jpg,1613,251,date,23,32,288,114
0008963159_0.jpg,1613,251,country,413,37,594,115
0008963159_0.jpg,1613,251,location,593,37,930,124
0008963163_0.jpg,1610,255,date,28,44,256,128
0008963163_0.jpg,1610,255,country,410,45,588,124
0008963163_0.jpg,1610,255,location,590,37,903,115
0008963166_2.jpg,1561,342,date,12,48,225,131
0008963166_2.jpg,1561,342,country,375,54,547,139
0008963166_2.jpg,1561,342,location,551,54,860,130
0008963169_0.jpg,1629,276,date,24,63,274,144
0008963169_0.jpg,1629,276,country,410,66,568,135
0008963169_0.jpg,1629,276,location,572,57,909,137
0008963171_0.jpg,1605,277,date,14,64,271,148
0008963171_0.jpg,1605,277,country,402,57,593,133
0008963171_0.jpg,1605,277,location,589,55,844,118
0008963172_1.jpg,1520,258,date,12,58,244,135
0008963172_1.jpg,1520,258,country,365,62,523,124
0008963172_1.jpg,1520,258,location,523,51,850,126
0008963177_0.jpg,1606,247,date,20,47,255,134
0008963177_0.jpg,1606,247,country,410,47,589,121
0008963177_0.jpg,1606,247,location,593,41,832,114
0008963178_0.jpg,1584,323,date,27,73,242,158
0008963178_0.jpg,1584,323,country,396,71,566,146
0008963178_0.jpg,1584,323,location,567,64,856,146
0008963179_0.jpg,1610,272,date,12,50,278,127
0008963179_0.jpg,1610,272,country,400,51,567,132
0008963179_0.jpg,1610,272,location,570,48,909,146
0008963185_0.jpg,1599,285,date,24,44,282,131
0008963185_0.jpg,1599,285,country,411,58,592,131
0008963185_0.jpg,1599,285,location,594,57,885,114
0008963197_0.jpg,1609,275,date,14,54,242,129
0008963197_0.jpg,1609,275,country,402,58,572,130
0008963197_0.jpg,1609,275,location,583,57,912,128
0008963214_0.jpg,1622,282,date,29,56,269,132
0008963214_0.jpg,1622,282,country,416,53,592,129
0008963214_0.jpg,1622,282,location,596,51,924,130
0008963216_0.jpg,1578,353,date,1,53,234,136
0008963216_0.jpg,1578,353,country,367,57,539,125
0008963216_0.jpg,1578,353,location,541,54,822,113
0008963223_1.jpg,1622,260,date,16,59,283,145
0008963223_1.jpg,1622,260,country,409,62,574,133
0008963223_1.jpg,1622,260,location,580,56,867,147
0008963228_0.jpg,1606,247,date,19,50,287,135
0008963228_0.jpg,1606,247,country,415,54,595,123
0008963228_0.jpg,1606,247,location,594,38,915,124
0008963229_0.jpg,1595,246,date,1,28,230,105
0008963229_0.jpg,1595,246,country,388,34,549,113
0008963229_0.jpg,1595,246,location,562,26,773,108
0008963230_0.jpg,1596,247,date,13,45,272,128
0008963230_0.jpg,1596,247,country,401,45,565,115
0008963230_0.jpg,1596,247,location,575,35,918,118
0008963231_0.jpg,1583,247,date,13,47,261,121
0008963231_0.jpg,1583,247,country,398,46,571,116
0008963231_0.jpg,1583,247,location,581,41,906,126
0008963232_0.jpg,1640,252,date,12,46,265,131
0008963232_0.jpg,1640,252,country,403,48,568,117
0008963232_0.jpg,1640,252,location,579,41,931,127
0008963236_0.jpg,1552,256,date,20,52,287,130
0008963236_0.jpg,1552,256,country,412,52,594,136
0008963236_0.jpg,1552,256,location,607,32,803,92
0008963242_0.jpg,1580,203,date,46,10,302,89
0008963242_0.jpg,1580,203,country,430,5,597,78
0008963242_0.jpg,1580,203,location,608,1,867,57
0008963247_0.jpg,1578,268,date,3,53,263,137
0008963247_0.jpg,1578,268,country,390,55,549,129
0008963247_0.jpg,1578,268,location,559,51,937,131
0008963251_0.jpg,1606,272,date,1,58,256,137
0008963251_0.jpg,1606,272,country,387,57,567,132
0008963251_0.jpg,1606,272,location,572,55,879,134
0008963255_0.jpg,1532,302,date,16,54,272,133
0008963255_0.jpg,1532,302,country,386,59,560,144
0008963255_0.jpg,1532,302,location,562,49,882,125
0008963257_0.jpg,1624,283,date,18,55,242,130
0008963257_0.jpg,1624,283,country,408,64,589,127
0008963257_0.jpg,1624,283,location,592,60,810,128
0008963263_0.jpg,1611,280,date,9,61,270,143
0008963263_0.jpg,1611,280,country,400,65,579,134
0008963263_0.jpg,1611,280,location,578,58,939,131
0008963265_0.jpg,1607,297,date,12,56,258,138
0008963265_0.jpg,1607,297,country,389,58,549,125
0008963265_0.jpg,1607,297,location,556,53,871,137
0008963266_0.jpg,1604,269,date,1,58,268,131
0008963266_0.jpg,1604,269,country,389,56,563,129
0008963266_0.jpg,1604,269,location,571,56,907,128
0008963268_0.jpg,1599,294,date,4,68,225,149
0008963268_0.jpg,1599,294,country,382,71,539,141
0008963268_0.jpg,1599,294,location,551,63,841,148
0008963278_0.jpg,1605,281,date,9,60,224,143
0008963278_0.jpg,1605,281,country,395,59,571,140
0008963278_0.jpg,1605,281,location,578,55,905,132
0008963279_0.jpg,1596,277,date,5,62,249,143
0008963279_0.jpg,1596,277,country,397,63,561,134
0008963279_0.jpg,1596,277,location,570,56,836,131
0008963287_1.jpg,1573,239,date,20,31,280,120
0008963287_1.jpg,1573,239,country,411,38,581,109
0008963287_1.jpg,1573,239,location,590,43,750,112
0008963296_0.jpg,1629,277,date,18,51,278,138
0008963296_0.jpg,1629,277,country,411,55,597,143
0008963296_0.jpg,1629,277,location,600,52,828,105
0008963302_0.jpg,1567,277,date,1,75,270,157
0008963302_0.jpg,1567,277,country,384,68,576,148
0008963302_0.jpg,1567,277,location,574,61,900,153
0008963320_0.jpg,1620,283,date,22,58,286,130
0008963320_0.jpg,1620,283,country,421,60,598,127
0008963320_0.jpg,1620,283,location,602,59,732,127
0008963333_0.jpg,1636,279,date,34,52,300,135
0008963333_0.jpg,1636,279,country,424,55,608,135
0008963333_0.jpg,1636,279,location,610,60,922,128
0008963349_0.jpg,1620,267,date,16,54,276,132
0008963349_0.jpg,1620,267,country,403,57,573,126
0008963349_0.jpg,1620,267,location,586,54,863,114
0008963362_0.jpg,1624,286,date,9,63,258,140
0008963362_0.jpg,1624,286,country,401,63,590,137
0008963362_0.jpg,1624,286,location,589,51,898,153
0008963386_0.jpg,1619,279,date,20,48,258,134
0008963386_0.jpg,1619,279,country,411,52,574,125
0008963386_0.jpg,1619,279,location,577,49,907,128
0008963398_0.jpg,1627,279,date,22,59,266,146
0008963398_0.jpg,1627,279,country,411,58,578,136
0008963398_0.jpg,1627,279,location,585,62,866,136
0008963414_0.jpg,1633,246,date,13,45,272,124
0008963414_0.jpg,1633,246,country,407,46,582,122
0008963414_0.jpg,1633,246,location,588,39,913,121
0008963440_0.jpg,1598,248,date,16,44,265,122
0008963440_0.jpg,1598,248,country,402,46,589,120
0008963440_0.jpg,1598,248,location,591,44,885,119
0008963448_0.jpg,1615,276,date,12,56,258,143
0008963448_0.jpg,1615,276,country,404,60,580,127
0008963448_0.jpg,1615,276,location,582,55,931,135
0008963452_0.jpg,1610,252,date,7,61,265,138
0008963452_0.jpg,1610,252,country,395,53,585,137
0008963452_0.jpg,1610,252,location,580,49,867,129
0008963458_0.jpg,1622,316,date,3,104,269,177
0008963458_0.jpg,1622,316,country,395,89,571,158
0008963458_0.jpg,1622,316,location,571,73,924,152
0008963467_0.jpg,1632,272,date,22,46,264,129
0008963467_0.jpg,1632,272,country,413,44,606,124
0008963467_0.jpg,1632,272,location,602,44,874,129
0008963468_0.jpg,1619,267,date,41,63,291,136
0008963468_0.jpg,1619,267,country,426,63,609,140
0008963468_0.jpg,1619,267,location,607,48,912,125
0008963933_0.jpg,3428,569,date,8,133,537,315
0008963933_0.jpg,3428,569,country,826,130,1188,293
0008963933_0.jpg,3428,569,location,1199,121,1926,290
0008964013_0.jpg,1642,263,date,31,58,269,142
0008964013_0.jpg,1642,263,country,421,58,584,129
0008964013_0.jpg,1642,263,location,598,51,922,135
0008964107_0.jpg,1600,277,date,15,63,257,137
0008964107_0.jpg,1600,277,country,399,56,579,138
0008964107_0.jpg,1600,277,location,582,51,916,135
0008964184_0.jpg,1612,290,date,24,58,278,134
0008964184_0.jpg,1612,290,country,413,57,586,123
0008964184_0.jpg,1612,290,location,591,52,926,124
0008964197_0.jpg,1584,335,date,8,66,232,151
0008964197_0.jpg,1584,335,country,370,68,553,141
0008964197_0.jpg,1584,335,location,552,68,837,139
0008964205_0.jpg,1606,312,date,38,71,283,146
0008964205_0.jpg,1606,312,country,407,71,573,141
0008964205_0.jpg,1606,312,location,581,63,942,141
0008964225_0.jpg,1608,281,date,5,60,262,145
0008964225_0.jpg,1608,281,country,391,63,569,143
0008964225_0.jpg,1608,281,location,574,50,917,116
0008964392_0.jpg,1591,324,date,14,55,268,140
0008964392_0.jpg,1591,324,country,388,57,565,140
0008964392_0.jpg,1591,324,location,567,53,896,133
0008968766_0.jpg,1607,265,date,1,50,253,129
0008968766_0.jpg,1607,265,country,370,55,540,122
0008968766_0.jpg,1607,265,location,553,44,869,124
0008968873_0.jpg,1529,341,date,34,46,280,132
0008968873_0.jpg,1529,341,country,407,55,584,143
0008968873_0.jpg,1529,341,location,585,61,885,124
0008970030_0.jpg,1596,268,date,14,63,280,149
0008970030_0.jpg,1596,268,country,406,65,582,137
0008970030_0.jpg,1596,268,location,586,61,911,133
0008970078_0.jpg,1633,254,date,16,51,279,133
0008970078_0.jpg,1633,254,country,409,50,587,130
0008970078_0.jpg,1633,254,location,586,49,894,127
0008970114_0.jpg,1617,288,date,19,61,262,137
0008970114_0.jpg,1617,288,country,401,61,568,135
0008970114_0.jpg,1617,288,location,578,58,854,130
0008970117_0.jpg,1566,334,date,6,75,249,147
0008970117_0.jpg,1566,334,country,377,73,539,148
0008970117_0.jpg,1566,334,location,548,71,865,139
0008970126_0.jpg,1614,288,date,33,53,277,124
0008970126_0.jpg,1614,288,country,421,59,596,132
0008970126_0.jpg,1614,288,location,601,54,970,143
0008970156_0.jpg,1625,281,date,17,54,277,134
0008970156_0.jpg,1625,281,country,405,53,590,138
0008970156_0.jpg,1625,281,location,593,46,925,141
0008970162_0.jpg,1607,278,date,8,69,261,142
0008970162_0.jpg,1607,278,country,405,64,555,136
0008970162_0.jpg,1607,278,location,588,64,879,137
0008970176_0.jpg,1629,281,date,31,61,271,141
0008970176_0.jpg,1629,281,country,412,63,574,136
0008970176_0.jpg,1629,281,location,602,62,923,135
0008970194_0.jpg,1620,291,date,27,63,276,142
0008970194_0.jpg,1620,291,country,410,65,604,139
0008970194_0.jpg,1620,291,location,602,52,961,142
0008970204_0.jpg,1630,273,date,30,58,260,144
0008970204_0.jpg,1630,273,country,419,53,583,129
0008970204_0.jpg,1630,273,location,602,52,920,130
0008970209_0.jpg,1613,274,date,15,63,277,143
0008970209_0.jpg,1613,274,country,404,60,587,135
0008970209_0.jpg,1613,274,location,588,61,854,137
0008970221_0.jpg,1624,283,date,33,63,273,139
0008970221_0.jpg,1624,283,country,419,66,602,138
0008970221_0.jpg,1624,283,location,599,63,944,140
0008970225_2.jpg,1639,276,date,37,66,303,141
0008970225_2.jpg,1639,276,country,419,63,597,136
0008970225_2.jpg,1639,276,location,599,57,965,137
0008970237_0.jpg,1608,268,date,1,63,248,146
0008970237_0.jpg,1608,268,country,379,50,570,149
0008970237_0.jpg,1608,268,location,569,41,998,151
0008970244_0.jpg,1613,260,date,12,54,212,137
0008970244_0.jpg,1613,260,country,393,51,566,128
0008970244_0.jpg,1613,260,location,572,41,825,123
0008970254_0.jpg,1630,262,date,21,40,278,131
0008970254_0.jpg,1630,262,country,410,46,565,123
0008970254_0.jpg,1630,262,location,591,44,922,145
0008970259_0.jpg,1596,275,date,5,63,248,141
0008970259_0.jpg,1596,275,country,394,59,575,134
0008970259_0.jpg,1596,275,location,574,55,914,145
0008970269_0.jpg,1615,299,date,1,67,265,146
0008970269_0.jpg,1615,299,country,390,62,585,140
0008970269_0.jpg,1615,299,location,575,60,921,137
0008970271_0.jpg,1562,352,date,17,77,263,160
0008970271_0.jpg,1562,352,country,381,80,557,158
0008970271_0.jpg,1562,352,location,550,73,822,151
0008970276_0.jpg,1623,286,date,32,53,275,135
0008970276_0.jpg,1623,286,country,423,58,585,126
0008970276_0.jpg,1623,286,location,590,49,933,132
0008970279_0.jpg,1614,268,date,1,49,246,133
0008970279_0.jpg,1614,268,country,380,49,554,134
0008970279_0.jpg,1614,268,location,566,43,894,129
0008970288_0.jpg,1623,266,date,24,58,272,138
0008970288_0.jpg,1623,266,country,412,58,586,131
0008970288_0.jpg,1623,266,location,596,56,856,125
0008970322_0.jpg,1625,266,date,26,59,283,141
0008970322_0.jpg,1625,266,country,417,58,589,128
0008970322_0.jpg,1625,266,location,589,55,857,136
0008970330_0.jpg,1625,257,date,1,56,243,129
0008970330_0.jpg,1625,257,country,380,54,550,128
0008970330_0.jpg,1625,257,location,561,32,909,131
0008970347_0.jpg,1612,273,date,11,62,254,136
0008970347_0.jpg,1612,273,country,398,62,554,131
0008970347_0.jpg,1612,273,location,577,56,894,127
0008970356_0.jpg,1626,276,date,16,57,251,137
0008970356_0.jpg,1626,276,country,405,58,585,126
0008970356_0.jpg,1626,276,location,586,60,867,127
0008970375_0.jpg,1624,248,date,22,44,261,118
0008970375_0.jpg,1624,248,country,404,46,581,116
0008970375_0.jpg,1624,248,location,583,42,900,115
0008970384_0.jpg,1533,212,date,35,20,287,98
0008970384_0.jpg,1533,212,country,425,16,596,94
0008970384_0.jpg,1533,212,location,590,3,940,81
0008970390_0.jpg,1620,290,date,9,52,261,144
0008970390_0.jpg,1620,290,country,399,60,571,136
0008970390_0.jpg,1620,290,location,575,59,826,116
0008970398_0.jpg,1619,267,date,1,56,269,137
0008970398_0.jpg,1619,267,country,394,53,570,141
0008970398_0.jpg,1619,267,location,584,37,902,145
0008970409_0.jpg,1595,271,date,6,53,269,135
0008970409_0.jpg,1595,271,country,392,56,572,136
0008970409_0.jpg,1595,271,location,580,43,904,154
0008970411_0.jpg,1611,234,date,1,42,240,119
0008970411_0.jpg,1611,234,country,380,32,565,118
0008970411_0.jpg,1611,234,location,564,33,903,115
0008970413_0.jpg,1616,255,date,11,44,269,137
0008970413_0.jpg,1616,255,country,405,49,572,124
0008970413_0.jpg,1616,255,location,590,48,870,132
0008970416_0.jpg,1580,274,date,3,62,265,150
0008970416_0.jpg,1580,274,country,389,58,581,141
0008970416_0.jpg,1580,274,location,584,54,885,138
0008970417_0.jpg,1573,306,date,3,65,210,137
0008970417_0.jpg,1573,306,country,378,63,541,135
0008970417_0.jpg,1573,306,location,546,49,863,132
0008970418_0.jpg,1608,259,date,1,54,264,136
0008970418_0.jpg,1608,259,country,382,51,561,130
0008970418_0.jpg,1608,259,location,558,45,890,130
0008970448_0.jpg,1625,291,date,27,52,289,151
0008970448_0.jpg,1625,291,country,412,63,603,139
0008970448_0.jpg,1625,291,location,604,57,926,147
0008970455_0.jpg,1593,235,date,19,35,285,122
0008970455_0.jpg,1593,235,country,406,39,568,109
0008970455_0.jpg,1593,235,location,597,32,910,114
0008970457_0.jpg,1613,277,date,24,62,274,148
0008970457_0.jpg,1613,277,country,409,63,573,137
0008970457_0.jpg,1613,277,location,601,59,911,131
0008970460_0.jpg,1614,280,date,17,60,237,140
0008970460_0.jpg,1614,280,country,403,58,571,144
0008970460_0.jpg,1614,280,location,580,53,934,148
0008970488_0.jpg,1620,276,date,18,56,270,143
0008970488_0.jpg,1620,276,country,408,56,595,131
0008970488_0.jpg,1620,276,location,593,50,874,132
0008970507_0.jpg,1625,232,date,33,28,278,108
0008970507_0.jpg,1625,232,country,426,28,595,106
0008970507_0.jpg,1625,232,location,601,20,871,105
0008970518_0.jpg,1610,267,date,1,58,262,136
0008970518_0.jpg,1610,267,country,390,51,551,136
0008970518_0.jpg,1610,267,location,568,52,867,125
0008970521_0.jpg,1585,266,date,1,57,217,141
0008970521_0.jpg,1585,266,country,388,56,559,131
0008970521_0.jpg,1585,266,location,560,48,907,123
0008970562_0.jpg,1626,285,date,24,55,281,135
0008970562_0.jpg,1626,285,country,410,56,595,129
0008970562_0.jpg,1626,285,location,594,52,929,133
0008970598_0.jpg,1630,275,date,25,54,278,136
0008970598_0.jpg,1630,275,country,421,60,580,143
0008970598_0.jpg,1630,275,location,596,59,839,142
0008970620_0.jpg,1627,270,date,15,56,271,142
0008970620_0.jpg,1627,270,country,401,61,579,144
0008970620_0.jpg,1627,270,location,588,56,925,154
0008970623_0.jpg,1642,261,date,43,55,295,141
0008970623_0.jpg,1642,261,country,431,57,602,140
0008970623_0.jpg,1642,261,location,611,50,943,102
0008970656_0.jpg,1621,276,date,16,50,284,138
0008970656_0.jpg,1621,276,country,409,56,597,136
0008970656_0.jpg,1621,276,location,600,46,915,133
0008970673_0.jpg,1619,282,date,21,48,288,138
0008970673_0.jpg,1619,282,country,410,55,573,132
0008970673_0.jpg,1619,282,location,582,51,958,146
0008971117_0.jpg,1613,261,date,1,43,258,131
0008971117_0.jpg,1613,261,country,393,47,576,121
0008971117_0.jpg,1613,261,location,578,43,908,122
0008971431_0.jpg,1619,270,date,1,46,252,138
0008971431_0.jpg,1619,270,country,392,53,566,139
0008971431_0.jpg,1619,270,location,566,40,899,134
0008971446_0.jpg,1623,238,date,11,33,285,112
0008971446_0.jpg,1623,238,country,400,31,588,112
0008971446_0.jpg,1623,238,location,586,23,957,116
0008971471_4.jpg,1607,279,date,8,63,268,144
0008971471_4.jpg,1607,279,country,400,64,574,145
0008971471_4.jpg,1607,279,location,574,59,873,139
0008971531_0.jpg,1630,284,date,29,58,288,133
0008971531_0.jpg,1630,284,country,414,58,610,140
0008971531_0.jpg,1630,284,location,597,53,883,91
0008971552_0.jpg,1593,286,date,1,60,233,147
0008971552_0.jpg,1593,286,country,371,66,570,154
0008971552_0.jpg,1593,286,location,569,52,876,151
0008971638_0.jpg,1617,303,date,16,59,283,151
0008971638_0.jpg,1617,303,country,407,63,593,142
0008971638_0.jpg,1617,303,location,598,52,923,141
0008971677_0.jpg,1628,284,date,25,62,270,141
0008971677_0.jpg,1628,284,country,420,63,595,137
0008971677_0.jpg,1628,284,location,597,52,907,134
0008971700_0.jpg,1628,283,date,6,61,258,153
0008971700_0.jpg,1628,283,country,392,65,587,152
0008971700_0.jpg,1628,283,location,583,62,860,148
0008971710_0.jpg,1612,284,date,23,57,270,137
0008971710_0.jpg,1612,284,country,411,56,584,139
0008971710_0.jpg,1612,284,location,593,53,848,135
0008971718_0.jpg,1598,254,date,1,64,264,147
0008971718_0.jpg,1598,254,country,379,56,574,137
0008971718_0.jpg,1598,254,location,567,54,773,124
0008971754_0.jpg,1593,257,date,1,42,248,124
0008971754_0.jpg,1593,257,country,380,43,572,118
0008971754_0.jpg,1593,257,location,574,43,917,126
0008971760_0.jpg,1558,208,date,1,14,260,99
0008971760_0.jpg,1558,208,country,378,9,557,97
0008971760_0.jpg,1558,208,location,555,15,884,94
0008971793_0.jpg,1588,305,date,25,74,257,156
0008971793_0.jpg,1588,305,country,382,70,555,140
0008971793_0.jpg,1588,305,location,552,61,850,128
0008971806_0.jpg,1614,268,date,13,47,272,133
0008971806_0.jpg,1614,268,country,405,51,592,138
0008971806_0.jpg,1614,268,location,590,46,920,94
0008971877_0.jpg,1628,309,date,3,77,251,163
0008971877_0.jpg,1628,309,country,396,73,566,151
0008971877_0.jpg,1628,309,location,568,53,918,148
0008971901_0.jpg,1619,272,date,2,42,254,134
0008971901_0.jpg,1619,272,country,381,50,563,131
0008971901_0.jpg,1619,272,location,563,53,894,137
0008971944_0.jpg,1624,275,date,16,56,293,137
0008971944_0.jpg,1624,275,country,411,58,569,132
0008971944_0.jpg,1624,275,location,581,48,924,150
0008971947_0.jpg,1609,298,date,16,53,270,139
0008971947_0.jpg,1609,298,country,413,52,604,151
0008971947_0.jpg,1609,298,location,608,47,915,133
0008971981_0.jpg,1562,252,date,1,52,263,136
0008971981_0.jpg,1562,252,country,379,47,546,121
0008971981_0.jpg,1562,252,location,555,45,902,129
0008972730_0.jpg,1623,277,date,17,60,274,147
0008972730_0.jpg,1623,277,country,411,64,580,133
0008972730_0.jpg,1623,277,location,590,51,900,140
0008972742_0.jpg,1591,271,date,1,50,260,141
0008972742_0.jpg,1591,271,country,384,49,542,130
0008972742_0.jpg,1591,271,location,556,45,914,128
0008972765_0.jpg,1663,269,date,30,58,276,137
0008972765_0.jpg,1663,269,country,415,59,590,130
0008972765_0.jpg,1663,269,location,591,45,977,146
0008972781_0.jpg,1601,259,date,22,49,288,131
0008972781_0.jpg,1601,259,country,422,49,595,119
0008972781_0.jpg,1601,259,location,595,44,935,122
0008972795_0.jpg,1598,265,date,1,59,239,144
0008972795_0.jpg,1598,265,country,363,55,549,145
0008972795_0.jpg,1598,265,location,549,47,922,140
0008972813_0.jpg,1615,261,date,15,45,276,131
0008972813_0.jpg,1615,261,country,407,47,594,128
0008972813_0.jpg,1615,261,location,584,49,865,132
0008972815_0.jpg,1604,303,date,15,74,288,162
0008972815_0.jpg,1604,303,country,401,66,588,146
0008972815_0.jpg,1604,303,location,592,47,881,146
0008972854_0.jpg,1610,302,date,7,66,284,153
0008972854_0.jpg,1610,302,country,402,68,585,145
0008972854_0.jpg,1610,302,location,590,71,910,153
0008972865_0.jpg,1620,319,date,21,72,268,159
0008972865_0.jpg,1620,319,country,400,73,568,144
0008972865_0.jpg,1620,319,location,573,74,738,142
0008972914_0.jpg,1650,277,date,5,60,241,141
0008972914_0.jpg,1650,277,country,398,56,580,136
0008972914_0.jpg,1650,277,location,580,40,911,138
0008972926_0.jpg,1592,232,date,1,27,252,113
0008972926_0.jpg,1592,232,country,380,24,568,104
0008972926_0.jpg,1592,232,location,575,18,876,83
0008972938_0.jpg,1625,287,date,17,53,235,135
0008972938_0.jpg,1625,287,country,410,55,600,145
0008972938_0.jpg,1625,287,location,601,36,931,129
0008972960_0.jpg,1623,284,date,12,61,256,143
0008972960_0.jpg,1623,284,country,403,56,586,143
0008972960_0.jpg,1623,284,location,590,51,832,113
0008972968_0.jpg,1589,270,date,1,58,241,140
0008972968_0.jpg,1589,270,country,384,56,574,128
0008972968_0.jpg,1589,270,location,576,39,842,115
0008973052_0.jpg,1574,272,date,8,50,277,140
0008973052_0.jpg,1574,272,country,392,53,567,131
0008973052_0.jpg,1574,272,location,566,53,906,128
0008973063_0.jpg,1606,275,date,20,57,258,139
0008973063_0.jpg,1606,275,country,404,56,582,132
0008973063_0.jpg,1606,275,location,586,43,892,126
0008973087_0.jpg,1614,266,date,30,70,270,143
0008973087_0.jpg,1614,266,country,415,66,610,131
0008973087_0.jpg,1614,266,location,603,58,940,125
0008973149_0.jpg,1552,314,date,10,65,265,142
0008973149_0.jpg,1552,314,country,393,62,567,136
0008973149_0.jpg,1552,314,location,562,61,843,131
0008973165_1.jpg,1602,299,date,5,64,267,136
0008973165_1.jpg,1602,299,country,395,60,566,137
0008973165_1.jpg,1602,299,location,564,54,905,131
0008973182_0.jpg,1614,281,date,1,82,241,154
0008973182_0.jpg,1614,281,country,380,70,563,155
0008973182_0.jpg,1614,281,location,559,47,966,150
0008973186_0.jpg,1604,273,date,9,59,261,139
0008973186_0.jpg,1604,273,country,395,61,584,142
0008973186_0.jpg,1604,273,location,586,54,917,141
0008973209_0.jpg,1626,279,date,14,40,270,136
0008973209_0.jpg,1626,279,country,404,48,578,126
0008973209_0.jpg,1626,279,location,574,44,929,143
0008973318_0.jpg,1632,275,date,11,62,272,143
0008973318_0.jpg,1632,275,country,404,63,583,141
0008973318_0.jpg,1632,275,location,584,50,903,116
0008973319_0.jpg,1624,317,date,18,61,277,151
0008973319_0.jpg,1624,317,country,418,64,583,152
0008973319_0.jpg,1624,317,location,593,59,896,141
0008973374_0.jpg,1629,273,date,1,58,246,140
0008973374_0.jpg,1629,273,country,387,63,563,143
0008973374_0.jpg,1629,273,location,572,56,872,136
0008973885_0.jpg,1580,320,date,31,53,285,144
0008973885_0.jpg,1580,320,country,404,65,582,147
0008973885_0.jpg,1580,320,location,586,67,859,150
0008974048_0.jpg,1622,277,date,1,56,263,131
0008974048_0.jpg,1622,277,country,392,64,569,133
0008974048_0.jpg,1622,277,location,571,57,803,132
0008974049_0.jpg,1619,259,date,10,46,269,132
0008974049_0.jpg,1619,259,country,403,49,591,123
0008974049_0.jpg,1619,259,location,582,40,921,134
0008974072_0.jpg,1626,297,date,36,65,283,145
0008974072_0.jpg,1626,297,country,423,63,592,139
0008974072_0.jpg,1626,297,location,602,62,930,132
0008974153_0.jpg,1598,287,date,20,56,250,129
0008974153_0.jpg,1598,287,country,400,54,565,130
0008974153_0.jpg,1598,287,location,577,55,882,111
0008974160_0.jpg,1583,321,date,16,66,227,146
0008974160_0.jpg,1583,321,country,399,63,563,141
0008974160_0.jpg,1583,321,location,583,62,881,138
0008974178_0.jpg,1632,246,date,1,43,261,126
0008974178_0.jpg,1632,246,country,396,46,579,119
0008974178_0.jpg,1632,246,location,586,38,893,123
0008974180_0.jpg,1605,255,date,6,45,243,122
0008974180_0.jpg,1605,255,country,394,43,559,129
0008974180_0.jpg,1605,255,location,577,41,885,123
0008974250_0.jpg,1616,264,date,4,52,257,133
0008974250_0.jpg,1616,264,country,391,55,554,124
0008974250_0.jpg,1616,264,location,572,52,951,133
0008974266_0.jpg,1625,259,date,14,54,271,131
0008974266_0.jpg,1625,259,country,406,50,579,133
0008974266_0.jpg,1625,259,location,583,39,936,128
0008974290_0.jpg,1570,279,date,30,56,268,139
0008974290_0.jpg,1570,279,country,416,55,587,141
0008974290_0.jpg,1570,279,location,591,52,888,140
0008974348_0.jpg,1626,270,date,21,45,255,127
0008974348_0.jpg,1626,270,country,407,52,571,135
0008974348_0.jpg,1626,270,location,586,52,824,129
0008974356_0.jpg,1602,265,date,10,61,254,136
0008974356_0.jpg,1602,265,country,402,58,566,127
0008974356_0.jpg,1602,265,location,578,55,898,130
0008974412_0.jpg,1601,296,date,12,58,259,140
0008974412_0.jpg,1601,296,country,398,59,573,132
0008974412_0.jpg,1601,296,location,584,58,919,133
0008974451_0.jpg,1616,272,date,21,54,255,141
0008974451_0.jpg,1616,272,country,410,56,576,131
0008974451_0.jpg,1616,272,location,590,54,922,127
0008974459_0.jpg,1612,263,date,5,50,248,130
0008974459_0.jpg,1612,263,country,392,54,567,130
0008974459_0.jpg,1612,263,location,573,54,902,128
0008974503_0.jpg,1606,269,date,5,52,201,139
0008974503_0.jpg,1606,269,country,391,58,561,130
0008974503_0.jpg,1606,269,location,567,57,886,127
0008974555_0.jpg,1609,280,date,12,52,258,135
0008974555_0.jpg,1609,280,country,402,53,572,129
0008974555_0.jpg,1609,280,location,578,36,888,130
0008974589_0.jpg,1588,276,date,1,51,239,130
0008974589_0.jpg,1588,276,country,387,59,572,136
0008974589_0.jpg,1588,276,location,578,55,881,133
0008974594_0.jpg,1555,352,date,1,61,235,135
0008974594_0.jpg,1555,352,country,350,61,522,133
0008974594_0.jpg,1555,352,location,526,47,826,131
0008975245_0.jpg,1610,266,date,9,18,245,102
0008975245_0.jpg,1610,266,country,396,25,571,107
0008975245_0.jpg,1610,266,location,583,22,907,121
0008975246_0.jpg,1615,276,date,39,57,300,148
0008975246_0.jpg,1615,276,country,424,59,592,143
0008975246_0.jpg,1615,276,location,601,55,906,137
0008975250_0.jpg,1611,270,date,1,50,247,139
0008975250_0.jpg,1611,270,country,383,58,549,146
0008975250_0.jpg,1611,270,location,563,55,900,144
0008975266_0.jpg,1610,278,date,8,66,264,141
0008975266_0.jpg,1610,278,country,397,63,566,132
0008975266_0.jpg,1610,278,location,587,60,902,131
0008975304_0.jpg,1606,254,date,2,51,260,138
0008975304_0.jpg,1606,254,country,399,53,573,139
0008975304_0.jpg,1606,254,location,579,41,923,128
0008975361_0.jpg,1613,270,date,11,50,267,141
0008975361_0.jpg,1613,270,country,409,56,571,132
0008975361_0.jpg,1613,270,location,585,44,891,126
0008975379_0.jpg,1615,280,date,19,47,277,137
0008975379_0.jpg,1615,280,country,413,49,601,141
0008975379_0.jpg,1615,280,location,604,39,937,134
0008975393_0.jpg,1605,278,date,13,54,253,145
0008975393_0.jpg,1605,278,country,403,56,563,139
0008975393_0.jpg,1605,278,location,580,51,917,141
0008975461_0.jpg,1613,281,date,8,53,269,137
0008975461_0.jpg,1613,281,country,395,51,561,122
0008975461_0.jpg,1613,281,location,578,32,907,138
0008975481_0.jpg,1617,306,date,22,48,259,142
0008975481_0.jpg,1617,306,country,414,54,585,124
0008975481_0.jpg,1617,306,location,586,35,898,131
0008975487_0.jpg,1598,223,date,1,12,263,96
0008975487_0.jpg,1598,223,country,397,15,563,85
0008975487_0.jpg,1598,223,location,570,5,915,91
0008975493_0.jpg,1609,297,date,42,50,266,130
0008975493_0.jpg,1609,297,country,428,47,600,131
0008975493_0.jpg,1609,297,location,615,37,947,131
0008975523_0.jpg,1601,267,date,1,65,238,146
0008975523_0.jpg,1601,267,country,384,59,555,126
0008975523_0.jpg,1601,267,location,564,38,913,143
0008975531_0.jpg,1625,233,date,10,15,280,100
0008975531_0.jpg,1625,233,country,400,22,561,93
0008975531_0.jpg,1625,233,location,585,22,927,104
0008975541_0.jpg,1648,264,date,29,49,286,134
0008975541_0.jpg,1648,264,country,420,45,602,120
0008975541_0.jpg,1648,264,location,604,43,910,137
0008975591_0.jpg,1624,283,date,24,58,261,135
0008975591_0.jpg,1624,283,country,411,62,604,132
0008975591_0.jpg,1624,283,location,609,59,906,133
0008975593_0.jpg,1615,344,date,12,66,273,147
0008975593_0.jpg,1615,344,country,397,64,591,137
0008975593_0.jpg,1615,344,location,588,55,881,136
0008975595_0.jpg,1620,290,date,36,59,282,135
0008975595_0.jpg,1620,290,country,421,62,603,139
0008975595_0.jpg,1620,290,location,606,56,929,136
0008975628_0.jpg,1616,268,date,11,51,248,136
0008975628_0.jpg,1616,268,country,402,56,557,131
0008975628_0.jpg,1616,268,location,580,53,922,139
0008975656_0.jpg,1626,288,date,27,43,295,133
0008975656_0.jpg,1626,288,country,418,49,596,143
0008975656_0.jpg,1626,288,location,605,48,921,131
0008975662_0.jpg,1616,273,date,8,57,221,133
0008975662_0.jpg,1616,273,country,401,56,565,129
0008975662_0.jpg,1616,273,location,580,53,914,139
0008975689_0.jpg,1593,308,date,1,53,247,134
0008975689_0.jpg,1593,308,country,386,51,571,129
0008975689_0.jpg,1593,308,location,573,51,965,130
0008975708_0.jpg,1617,279,date,29,60,280,145
0008975708_0.jpg,1617,279,country,415,61,600,139
0008975708_0.jpg,1617,279,location,598,49,946,130
0008975742_0.jpg,1627,279,date,12,58,282,134
0008975742_0.jpg,1627,279,country,399,61,587,131
0008975742_0.jpg,1627,279,location,592,53,913,130
0008976435_0.jpg,1612,264,date,7,54,274,130
0008976435_0.jpg,1612,264,country,395,47,569,122
0008976435_0.jpg,1612,264,location,572,45,897,138
0008976439_0.jpg,1627,272,date,6,56,266,137
0008976439_0.jpg,1627,272,country,401,57,593,128
0008976439_0.jpg,1627,272,location,596,49,873,125
0008976444_0.jpg,1615,281,date,30,65,282,134
0008976444_0.jpg,1615,281,country,417,60,602,134
0008976444_0.jpg,1615,281,location,600,48,916,135
0008976564_0.jpg,1584,277,date,1,56,265,144
0008976564_0.jpg,1584,277,country,382,60,543,142
0008976564_0.jpg,1584,277,location,561,44,893,145
0008980405_0.jpg,1612,283,date,5,58,233,140
0008980405_0.jpg,1612,283,country,389,58,560,140
0008980405_0.jpg,1612,283,location,566,49,904,140
0008982771_0.jpg,1626,263,date,4,56,263,137
0008982771_0.jpg,1626,263,country,397,55,575,126
0008982771_0.jpg,1626,263,location,583,52,855,101
0008982788_0.jpg,1610,264,date,10,54,247,129
0008982788_0.jpg,1610,264,country,400,54,583,132
0008982788_0.jpg,1610,264,location,582,52,905,130
0008982834_0.jpg,1583,265,date,1,63,217,138
0008982834_0.jpg,1583,265,country,376,54,561,143
0008982834_0.jpg,1583,265,location,561,56,879,143
0008982839_0.jpg,1614,273,date,19,62,260,141
0008982839_0.jpg,1614,273,country,404,60,592,130
0008982839_0.jpg,1614,273,location,593,58,812,130
0008982885_0.jpg,1627,269,date,1,60,250,147
0008982885_0.jpg,1627,269,country,385,59,575,140
0008982885_0.jpg,1627,269,location,580,46,879,139
0008982932_0.jpg,1601,307,date,1,53,237,142
0008982932_0.jpg,1601,307,country,380,55,557,132
0008982932_0.jpg,1601,307,location,562,48,924,130
0008982945_0.jpg,1585,269,date,1,20,248,113
0008982945_0.jpg,1585,269,country,394,36,565,122
0008982945_0.jpg,1585,269,location,573,43,886,130
0008982959_0.jpg,1635,277,date,20,66,259,149
0008982959_0.jpg,1635,277,country,414,62,595,135
0008982959_0.jpg,1635,277,location,598,48,935,129
0008983012_0.jpg,1597,283,date,3,60,257,138
0008983012_0.jpg,1597,283,country,392,57,622,130
0008983012_0.jpg,1597,283,location,589,55,895,128
0008983029_0.jpg,1604,288,date,39,56,296,141
0008983029_0.jpg,1604,288,country,426,58,606,147
0008983029_0.jpg,1604,288,location,611,66,916,148
0008983034_0.jpg,1602,274,date,12,52,284,141
0008983034_0.jpg,1602,274,country,403,57,581,125
0008983034_0.jpg,1602,274,location,585,50,915,123
0008983041_0.jpg,1611,233,date,31,35,255,115
0008983041_0.jpg,1611,233,country,426,28,612,112
0008983041_0.jpg,1611,233,location,615,17,953,119
0008983059_0.jpg,1616,244,date,10,49,254,129
0008983059_0.jpg,1616,244,country,397,44,582,116
0008983059_0.jpg,1616,244,location,589,43,909,116
0008983076_0.jpg,1619,271,date,10,59,239,140
0008983076_0.jpg,1619,271,country,401,60,575,136
0008983076_0.jpg,1619,271,location,576,56,938,134
0008983091_0.jpg,1616,278,date,11,57,240,140
0008983091_0.jpg,1616,278,country,407,59,579,133
0008983091_0.jpg,1616,278,location,580,54,925,142
0008983100_0.jpg,1598,256,date,12,41,276,124
0008983100_0.jpg,1598,256,country,399,34,574,111
0008983100_0.jpg,1598,256,location,579,36,848,103
0008983103_0.jpg,1608,273,date,12,55,271,145
0008983103_0.jpg,1608,273,country,406,51,581,127
0008983103_0.jpg,1608,273,location,580,52,902,143
0008983105_0.jpg,1572,273,date,1,50,267,134
0008983105_0.jpg,1572,273,country,388,49,569,121
0008983105_0.jpg,1572,273,location,572,44,892,122
0008983109_0.jpg,1590,228,date,20,17,278,105
0008983109_0.jpg,1590,228,country,396,27,577,103
0008983109_0.jpg,1590,228,location,576,18,910,74
0008983170_0.jpg,1554,255,date,1,58,252,139
0008983170_0.jpg,1554,255,country,385,57,563,130
0008983170_0.jpg,1554,255,location,562,36,903,128
0008983709_0.jpg,1629,284,date,23,66,294,151
0008983709_0.jpg,1629,284,country,419,60,608,139
0008983709_0.jpg,1629,284,location,602,53,936,152
0008983916_0.jpg,1537,254,date,1,60,258,141
0008983916_0.jpg,1537,254,country,388,63,562,134
0008983916_0.jpg,1537,254,location,569,48,818,131
0008984031_0.jpg,1555,227,date,1,19,236,108
0008984031_0.jpg,1555,227,country,377,22,560,107
0008984031_0.jpg,1555,227,location,558,8,988,113
0008984063_0.jpg,1596,266,date,1,58,259,148
0008984063_0.jpg,1596,266,country,374,51,543,135
0008984063_0.jpg,1596,266,location,553,45,906,130
0008984065_0.jpg,1605,272,date,5,58,269,142
0008984065_0.jpg,1605,272,country,400,61,591,149
0008984065_0.jpg,1605,272,location,582,57,915,134
0008984121_0.jpg,1627,285,date,10,102,268,177
0008984121_0.jpg,1627,285,country,395,82,575,153
0008984121_0.jpg,1627,285,location,579,58,917,141
0008984136_0.jpg,1611,241,date,9,28,259,118
0008984136_0.jpg,1611,241,country,402,32,582,104
0008984136_0.jpg,1611,241,location,581,32,833,109
0008984142_0.jpg,1609,279,date,1,58,272,133
0008984142_0.jpg,1609,279,country,391,58,575,136
0008984142_0.jpg,1609,279,location,580,57,825,134
0008984152_0.jpg,1603,304,date,1,61,243,145
0008984152_0.jpg,1603,304,country,381,61,568,136
0008984152_0.jpg,1603,304,location,566,61,904,139
0008984164_0.jpg,1624,288,date,28,55,274,137
0008984164_0.jpg,1624,288,country,410,56,597,130
0008984164_0.jpg,1624,288,location,594,52,924,129
0008984165_0.jpg,1632,283,date,30,58,282,145
0008984165_0.jpg,1632,283,country,417,61,598,142
0008984165_0.jpg,1632,283,location,596,57,895,143
0008984168_0.jpg,1628,253,date,2,60,234,139
0008984168_0.jpg,1628,253,country,390,57,580,138
0008984168_0.jpg,1628,253,location,579,45,932,132
0008984176_0.jpg,1615,305,date,16,60,264,143
0008984176_0.jpg,1615,305,country,407,70,580,148
0008984176_0.jpg,1615,305,location,579,70,940,161
0008984195_0.jpg,1610,281,date,15,51,258,135
0008984195_0.jpg,1610,281,country,398,54,582,130
0008984195_0.jpg,1610,281,location,577,48,918,138
0008985310_0.jpg,1582,311,date,1,57,241,141
0008985310_0.jpg,1582,311,country,381,61,552,131
0008985310_0.jpg,1582,311,location,557,62,866,134
0008985316_0.jpg,1627,287,date,32,52,296,141
0008985316_0.jpg,1627,287,country,418,53,601,134
0008985316_0.jpg,1627,287,location,596,46,935,148
0008985318_0.jpg,1605,277,date,19,54,284,139
0008985318_0.jpg,1605,277,country,404,54,598,136
0008985318_0.jpg,1605,277,location,592,53,928,133
0008985325_0.jpg,1612,273,date,18,52,290,140
0008985325_0.jpg,1612,273,country,411,57,587,137
0008985325_0.jpg,1612,273,location,586,48,912,134
0008985358_0.jpg,1586,271,date,13,57,279,149
0008985358_0.jpg,1586,271,country,397,62,586,133
0008985358_0.jpg,1586,271,location,589,59,913,133
0008985359_0.jpg,1634,291,date,32,55,288,127
0008985359_0.jpg,1634,291,country,421,56,608,129
0008985359_0.jpg,1634,291,location,609,46,930,126
0008985440_0.jpg,1619,285,date,11,56,268,137
0008985440_0.jpg,1619,285,country,404,57,570,133
0008985440_0.jpg,1619,285,location,574,51,916,132
